% (c) 2012 Dimitrios Vrettos - d.vrettos@gmail.com

\begin{center}
 \begin{tikzpicture}[decoration={markings,mark=between positions .3 and .5 step 30pt with {\arrowreversed{stealth}}}]
  \begin{scope}[thick,font=\scriptsize]
   \draw[->] (0,0)  - -  (280pt,0) node[above]{$\N$};
    \foreach \c in {-2,-1,...,4}{%
     \draw[dotted, color=CornflowerBlue,postaction={decorate}](\c,5pt)--(\c,5pt) arc (180:0:0.5 and 0.5);}
    \foreach \n in {0,1,2,...,9}{%	
     \draw (\n,-3pt) -- (\n,3pt)   node [below=5pt] {$\n$};}
  \end{scope}
 \end{tikzpicture}
\end{center}
